
state={
	id=483
	name="STATE_483"

	history={
		#owner = MEX
#		add_core_of = MEX

	}

	provinces={
		2069 4908 4977 5071 8012 8033 10765 10848 12833 13214 
	}
	manpower=1
	buildings_max_level_factor=1.000
	state_category=rural
}
